146.247.231.125
146.247.231.78
146.247.231.72
146.247.231.3
146.247.231.85
146.247.231.90
146.247.231.34
146.247.231.112
146.247.231.104
146.247.231.119
146.247.231.50
146.247.231.2
146.247.231.144
146.247.231.135
146.247.231.218
146.247.231.146
146.247.231.183
146.247.231.164
146.247.231.47
146.247.231.222
146.247.231.158
146.247.231.201
146.247.231.32
146.247.231.226
146.247.231.147
159.253.222.150
159.253.222.121
159.253.222.48
159.253.222.66
159.253.222.16
159.253.222.60
159.253.222.115
159.253.222.211
159.253.222.213
159.253.222.139
159.253.222.75
159.253.222.146
159.253.222.42
159.253.222.79
159.253.222.199
159.253.222.73
159.253.222.25
159.253.222.169
159.253.222.137
159.253.222.170
159.253.222.215
159.253.222.123
159.253.222.50
159.253.222.122
159.253.222.124
176.74.199.192
176.74.199.236
176.74.199.109
176.74.199.119
176.74.199.165
176.74.199.161
176.74.199.117
176.74.199.196
176.74.199.172
176.74.199.60
176.74.199.151
176.74.199.130
176.74.199.240
176.74.199.62
176.74.199.244
176.74.199.137
176.74.199.100
176.74.199.125
176.74.199.239
176.74.199.78
176.74.199.121
176.74.199.163
176.74.199.120
176.74.199.124
176.74.199.215
178.236.66.88
178.236.66.147
178.236.66.54
178.236.66.109
178.236.66.247
178.236.66.205
178.236.66.149
178.236.66.163
178.236.66.159
178.236.66.241
178.236.66.129
178.236.66.137
178.236.66.130
178.236.66.128
178.236.66.235
178.236.66.236
178.236.66.158
178.236.66.164
178.236.66.126
178.236.66.203
178.236.66.233
178.236.66.152
178.236.66.106
178.236.66.214
178.236.66.103
185.12.150.144
185.12.150.118
185.12.150.81
185.12.150.140
185.12.150.130
185.12.150.149
185.12.150.34
185.12.150.132
185.12.150.152
185.12.150.157
185.12.150.133
185.12.150.137
185.12.150.154
185.12.150.146
185.12.150.141
185.12.150.184
185.12.150.39
185.12.150.188
185.12.150.228
185.12.150.68
185.12.150.224
185.12.150.170
185.12.150.245
185.12.150.31
185.12.150.227
185.123.34.193
185.123.34.125
185.123.34.133
185.123.34.116
185.123.34.179
185.123.34.64
185.123.34.143
185.123.34.130
185.123.34.227
185.123.34.224
185.123.34.81
185.123.34.226
185.123.34.85
185.123.34.101
185.123.34.129
185.123.34.80
185.123.34.164
185.123.34.242
185.123.34.239
185.123.34.141
185.123.34.175
185.123.34.120
185.123.34.146
185.123.34.132
185.123.34.124
185.129.25.185
185.129.25.178
185.129.25.224
185.129.25.237
185.129.25.159
185.129.25.239
185.129.25.226
185.129.25.179
185.129.25.229
185.129.25.110
185.129.25.238
185.129.25.234
185.129.25.35
185.129.25.236
185.129.25.227
185.129.25.231
185.129.25.225
185.129.25.63
185.129.25.43
185.129.25.57
185.129.25.235
185.129.25.228
185.129.25.38
185.129.25.162
185.129.25.230
185.129.26.211
185.129.26.71
185.129.26.111
185.129.26.212
185.129.26.216
185.129.26.217
185.129.26.152
185.129.26.44
185.129.26.54
185.129.26.131
185.129.26.61
185.129.26.167
185.129.26.49
185.129.26.222
185.129.26.67
185.129.26.68
185.129.26.176
185.129.26.41
185.129.26.166
185.129.26.86
185.129.26.182
185.129.26.191
185.129.26.35
185.129.26.153
185.129.26.149
185.139.154.121
185.139.154.118
185.139.154.115
185.139.154.119
185.139.154.253
185.139.154.123
185.139.154.235
185.139.154.226
185.139.154.114
185.139.154.224
185.139.154.238
185.139.154.113
185.139.154.125
185.139.154.242
185.139.154.124
185.139.154.116
185.139.154.252
185.139.154.251
185.139.154.120
185.139.154.122
185.139.154.112
185.139.154.244
185.139.154.254
185.139.154.234
185.139.154.127
185.141.72.7
185.141.72.168
185.141.72.15
185.141.72.21
185.141.72.30
185.141.72.25
185.141.72.173
185.141.72.26
185.141.72.31
185.141.72.6
185.141.72.22
185.141.72.8
185.141.72.19
185.141.72.28
185.141.72.20
185.141.72.146
185.141.72.190
185.141.72.189
185.141.72.186
185.141.72.239
185.141.72.185
185.141.72.235
185.141.72.149
185.141.72.253
185.141.72.250
185.142.81.130
185.142.81.153
185.142.81.129
185.142.81.148
185.142.81.147
185.142.81.146
185.142.81.149
185.142.81.159
185.142.81.145
185.142.81.139
185.142.81.133
185.142.81.152
185.142.81.134
185.142.81.154
185.142.81.138
185.142.81.128
185.142.81.140
185.142.81.158
185.142.81.144
185.142.81.132
185.142.81.202
185.142.81.155
185.142.81.136
185.142.81.142
185.142.81.141
192.176.26.109
192.176.26.172
192.176.26.180
192.176.26.103
192.176.26.120
192.176.26.14
192.176.26.46
192.176.26.98
192.176.26.37
192.176.26.215
192.176.26.187
192.176.26.80
192.176.26.92
192.176.26.219
192.176.26.102
192.176.26.24
192.176.26.33
192.176.26.66
192.176.26.86
192.176.26.153
192.176.26.28
192.176.26.231
192.176.26.7
192.176.26.89
192.176.26.50
192.71.15.12
192.71.15.191
192.71.15.78
192.71.15.212
192.71.15.57
192.71.15.89
192.71.15.246
192.71.15.219
192.71.15.50
192.71.15.68
192.71.15.164
192.71.15.39
192.71.15.30
192.71.15.28
192.71.15.27
192.71.15.87
192.71.15.215
192.71.15.11
192.71.15.90
192.71.15.182
192.71.15.245
192.71.15.147
192.71.15.227
192.71.15.157
192.71.15.51
192.71.17.230
192.71.17.75
192.71.17.204
192.71.17.144
192.71.17.123
192.71.17.116
192.71.17.219
192.71.17.46
192.71.17.138
192.71.17.36
192.71.17.182
192.71.17.69
192.71.17.99
192.71.17.187
192.71.17.153
192.71.17.177
192.71.17.200
192.71.17.128
192.71.17.63
192.71.17.210
192.71.17.107
192.71.17.214
192.71.17.21
192.71.17.45
192.71.17.57
192.71.57.239
192.71.57.248
192.71.57.215
192.71.57.195
192.71.57.102
192.71.57.8
192.71.57.219
192.71.57.196
192.71.57.249
192.71.57.77
192.71.57.118
192.71.57.45
192.71.57.70
192.71.57.89
192.71.57.94
192.71.57.210
192.71.57.223
192.71.57.108
192.71.57.142
192.71.57.166
192.71.57.93
192.71.57.213
192.71.57.63
192.71.57.240
192.71.57.122
192.71.65.8
192.71.65.101
192.71.65.203
192.71.65.10
192.71.65.30
192.71.65.60
192.71.65.139
192.71.65.143
192.71.65.251
192.71.65.34
192.71.65.167
192.71.65.201
192.71.65.68
192.71.65.218
192.71.65.115
192.71.65.227
192.71.65.229
192.71.65.18
192.71.65.61
192.71.65.100
192.71.65.206
192.71.65.252
192.71.65.205
192.71.65.250
192.71.65.13
192.71.95.229
192.71.95.88
192.71.95.69
192.71.95.18
192.71.95.117
192.71.95.249
192.71.95.205
192.71.95.211
192.71.95.65
192.71.95.191
192.71.95.253
192.71.95.235
192.71.95.153
192.71.95.226
192.71.95.165
192.71.95.213
192.71.95.73
192.71.95.132
192.71.95.61
192.71.95.4
192.71.95.215
192.71.95.203
192.71.95.182
192.71.95.129
192.71.95.121
193.181.13.81
193.181.13.41
193.181.13.243
193.181.13.7
193.181.13.89
193.181.13.163
193.181.13.134
193.181.13.218
193.181.13.152
193.181.13.251
193.181.13.160
193.181.13.207
193.181.13.221
193.181.13.178
193.181.13.186
193.181.13.63
193.181.13.242
193.181.13.137
193.181.13.35
193.181.13.101
193.181.13.91
193.181.13.61
193.181.13.64
193.181.13.13
193.181.13.106
193.181.18.3
193.181.18.208
193.181.18.137
193.181.18.143
193.181.18.218
193.181.18.91
193.181.18.43
193.181.18.171
193.181.18.71
193.181.18.214
193.181.18.216
193.181.18.25
193.181.18.241
193.181.18.187
193.181.18.124
193.181.18.100
193.181.18.30
193.181.18.112
193.181.18.201
193.181.18.188
193.181.18.240
193.181.18.179
193.181.18.203
193.181.18.217
193.181.18.196
193.183.110.242
193.183.110.50
193.183.110.65
193.183.110.42
193.183.110.82
193.183.110.13
193.183.110.170
193.183.110.20
193.183.110.8
193.183.110.195
193.183.110.246
193.183.110.90
193.183.110.176
193.183.110.160
193.183.110.220
193.183.110.253
193.183.110.80
193.183.110.87
193.183.110.79
193.183.110.159
193.183.110.145
193.183.110.153
193.183.110.93
193.183.110.76
193.183.110.88
193.183.170.104
193.183.170.93
193.183.170.188
193.183.170.30
193.183.170.250
193.183.170.223
193.183.170.79
193.183.170.185
193.183.170.182
193.183.170.205
193.183.170.19
193.183.170.204
193.183.170.66
193.183.170.46
193.183.170.212
193.183.170.117
193.183.170.254
193.183.170.207
193.183.170.50
193.183.170.41
193.183.170.215
193.183.170.141
193.183.170.124
193.183.170.224
193.183.170.184
193.183.173.55
193.183.173.130
193.183.173.237
193.183.173.239
193.183.173.218
193.183.173.124
193.183.173.242
193.183.173.215
193.183.173.64
193.183.173.175
193.183.173.159
193.183.173.109
193.183.173.62
193.183.173.191
193.183.173.58
193.183.173.40
193.183.173.125
193.183.173.238
193.183.173.144
193.183.173.45
193.183.173.152
193.183.173.118
193.183.173.229
193.183.173.29
193.183.173.141
194.103.137.28
194.103.137.200
194.103.137.236
194.103.137.249
194.103.137.219
194.103.137.84
194.103.137.109
194.103.137.42
194.103.137.132
194.103.137.88
194.103.137.68
194.103.137.25
194.103.137.218
194.103.137.102
194.103.137.250
194.103.137.173
194.103.137.113
194.103.137.41
194.103.137.209
194.103.137.131
194.103.137.167
194.103.137.17
194.103.137.155
194.103.137.159
194.103.137.59
194.103.211.27
194.103.211.177
194.103.211.170
194.103.211.18
194.103.211.253
194.103.211.24
194.103.211.94
194.103.211.70
194.103.211.168
194.103.211.227
194.103.211.204
194.103.211.217
194.103.211.237
194.103.211.141
194.103.211.234
194.103.211.214
194.103.211.196
194.103.211.161
194.103.211.151
194.103.211.212
194.103.211.223
194.103.211.124
194.103.211.19
194.103.211.7
194.103.211.165
194.132.202.77
194.132.202.28
194.132.202.91
194.132.202.15
194.132.202.32
194.132.202.217
194.132.202.40
194.132.202.46
194.132.202.49
194.132.202.243
194.132.202.50
194.132.202.38
194.132.202.70
194.132.202.250
194.132.202.23
194.132.202.241
194.132.202.90
194.132.202.20
194.132.202.87
194.132.202.155
194.132.202.17
194.132.202.67
194.132.202.136
194.132.202.189
194.132.202.112
194.68.96.20
194.68.96.178
194.68.96.165
194.68.96.65
194.68.96.142
194.68.96.111
194.68.96.199
194.68.96.29
194.68.96.59
194.68.96.204
194.68.96.112
194.68.96.210
194.68.96.235
194.68.96.218
194.68.96.120
194.68.96.134
194.68.96.10
194.68.96.159
194.68.96.233
194.68.96.194
194.68.96.185
194.68.96.104
194.68.96.247
194.68.96.86
194.68.96.213
31.204.70.69
31.204.70.101
31.204.70.100
31.204.70.32
31.204.70.5
31.204.70.2
31.204.70.70
31.204.70.73
31.204.70.112
31.204.70.44
31.204.70.14
31.204.70.218
31.204.70.20
31.204.70.72
31.204.70.92
31.204.70.9
31.204.70.106
31.204.70.41
31.204.70.217
31.204.70.107
31.204.70.109
31.204.70.166
31.204.70.97
31.204.70.22
31.204.70.47
5.133.204.151
5.133.204.82
5.133.204.77
5.133.204.204
5.133.204.67
5.133.204.78
5.133.204.73
5.133.204.208
5.133.204.71
5.133.204.215
5.133.204.212
5.133.204.74
5.133.204.75
5.133.204.213
5.133.204.211
5.133.204.217
5.133.204.72
5.133.204.69
5.133.204.70
5.133.204.80
5.133.204.130
5.133.204.223
5.133.204.200
5.133.204.81
5.133.204.68
5.133.209.109
5.133.209.207
5.133.209.14
5.133.209.204
5.133.209.23
5.133.209.58
5.133.209.187
5.133.209.138
5.133.209.214
5.133.209.218
5.133.209.165
5.133.209.102
5.133.209.213
5.133.209.219
5.133.209.205
5.133.209.198
5.133.209.184
5.133.209.96
5.133.209.157
5.133.209.201
5.133.209.18
5.133.209.190
5.133.209.100
5.133.209.112
5.133.209.195
5.133.214.52
5.133.214.193
5.133.214.216
5.133.214.159
5.133.214.204
5.133.214.221
5.133.214.152
5.133.214.83
5.133.214.232
5.133.214.110
5.133.214.213
5.133.214.157
5.133.214.207
5.133.214.23
5.133.214.251
5.133.214.14
5.133.214.250
5.133.214.82
5.133.214.78
5.133.214.242
5.133.214.24
5.133.214.68
5.133.214.229
5.133.214.252
5.133.214.154
5.133.219.209
5.133.219.194
5.133.219.15
5.133.219.21
5.133.219.210
5.133.219.197
5.133.219.142
5.133.219.192
5.133.219.198
5.133.219.6
5.133.219.218
5.133.219.58
5.133.219.131
5.133.219.219
5.133.219.141
5.133.219.203
5.133.219.202
5.133.219.18
5.133.219.152
5.133.219.119
5.133.219.5
5.133.219.140
5.133.219.19
5.133.219.12
5.133.219.26
83.140.97.103
83.140.97.3
83.140.97.58
83.140.97.59
83.140.97.5
83.140.97.94
83.140.97.116
83.140.97.125
83.140.97.69
83.140.97.123
83.140.97.129
83.140.97.182
83.140.97.212
83.140.97.38
83.140.97.72
83.140.97.224
83.140.97.174
83.140.97.67
83.140.97.9
83.140.97.137
83.140.97.101
83.140.97.33
83.140.97.193
83.140.97.222
83.140.97.188
93.158.108.84
93.158.108.134
93.158.108.93
93.158.108.59
93.158.108.51
93.158.108.53
93.158.108.72
93.158.108.43
93.158.108.49
93.158.108.138
93.158.108.124
93.158.108.82
93.158.108.38
93.158.108.129
93.158.108.69
93.158.108.41
93.158.108.56
93.158.108.121
93.158.108.89
93.158.108.137
93.158.108.122
93.158.108.125
93.158.108.127
93.158.108.95
93.158.108.36
93.158.92.111
93.158.92.151
93.158.92.156
93.158.92.141
93.158.92.160
93.158.92.110
93.158.92.115
93.158.92.68
93.158.92.99
93.158.92.78
93.158.92.74
93.158.92.64
93.158.92.82
93.158.92.38
93.158.92.101
93.158.92.94
93.158.92.249
93.158.92.65
93.158.92.106
93.158.92.95
93.158.92.59
93.158.92.190
93.158.92.39
93.158.92.126
93.158.92.102
95.215.168.155
95.215.168.12
95.215.168.247
95.215.168.134
95.215.168.230
95.215.168.123
95.215.168.190
95.215.168.78
95.215.168.147
95.215.168.151
95.215.168.75
95.215.168.143
95.215.168.124
95.215.168.234
95.215.168.152
95.215.168.246
95.215.168.23
95.215.168.73
95.215.168.28
95.215.168.157
95.215.168.252
95.215.168.245
95.215.168.253
95.215.168.224
95.215.168.191
185.123.93.83
185.123.93.127
185.123.93.163
185.123.93.219
185.123.93.68
185.123.93.92
185.123.93.98
185.123.93.69
185.123.93.217
185.123.93.81
185.123.93.87
185.123.93.90
185.123.93.95
185.123.93.162
185.123.93.86
185.123.93.63
185.123.93.38
185.123.93.91
185.123.93.80
185.123.93.88
185.123.93.94
185.123.93.82
185.123.93.199
185.123.93.84
185.123.93.177
185.139.153.128
185.139.153.44
185.139.153.130
185.139.153.132
185.139.153.131
185.139.153.137
185.139.153.135
185.139.153.139
185.139.153.134
185.139.153.143
185.139.153.142
185.139.153.59
185.139.153.140
185.139.153.133
185.139.153.61
185.139.153.136
185.139.153.31
185.139.153.141
185.139.153.129
185.139.153.138
185.139.153.6
185.139.153.252
185.139.153.220
185.139.153.127
185.139.153.168
192.71.50.240
192.71.50.242
192.71.50.173
192.71.50.44
192.71.50.217
192.71.50.246
192.71.50.252
192.71.50.71
192.71.50.28
192.71.50.223
192.71.50.230
192.71.50.204
192.71.50.168
192.71.50.38
192.71.50.171
192.71.50.167
192.71.50.21
192.71.50.154
192.71.50.166
192.71.50.153
192.71.50.100
192.71.50.83
192.71.50.26
192.71.50.29
192.71.50.133
80.248.229.22
80.248.229.58
80.248.229.46
80.248.229.74
80.248.229.230
80.248.229.35
80.248.229.189
80.248.229.100
80.248.229.151
80.248.229.207
80.248.229.131
80.248.229.128
80.248.229.81
80.248.229.93
80.248.229.95
80.248.229.84
80.248.229.66
80.248.229.213
80.248.229.254
80.248.229.53
80.248.229.87
80.248.229.158
80.248.229.244
80.248.229.114
80.248.229.78
185.157.88.172
185.157.88.174
185.157.88.250
185.157.88.195
185.157.88.82
185.157.88.199
185.157.88.52
185.157.88.89
185.157.88.205
185.157.88.130
185.157.88.99
185.157.88.103
185.157.88.252
185.157.88.175
185.157.88.110
185.157.88.85
185.157.88.206
185.157.88.48
185.157.88.193
185.157.88.133
185.157.88.49
185.157.88.94
185.157.88.98
185.157.88.90
185.157.88.91
