<svg xmlns="http://www.w3.org/2000/svg" xmlns:xlink="http://www.w3.org/1999/xlink" version="1.1" width="1000"
     height="1000" viewBox="0 0 1000 1000" xml:space="preserve">
<desc>Created with Fabric.js 3.5.0</desc>
    <defs>
</defs>
    <rect x="0" y="0" width="100%" height="100%" fill="#ffffff"/>
    <g transform="matrix(0.8333 0 0 0.8333 499.98 499.98)" id="658941">
<g style="" vector-effect="non-scaling-stroke">
		<g transform="matrix(1 0 0 1 -92.184 -63.9778)">
<path style="stroke: none; stroke-width: 1; stroke-dasharray: none; stroke-linecap: butt; stroke-dashoffset: 0; stroke-linejoin: miter; stroke-miterlimit: 4; is-custom-font: none; font-file-url: none; fill: rgb(0,188,140); fill-rule: nonzero; opacity: 1;"
      transform=" translate(-507.816, -536.0222)"
      d="M 238.53 998.7 S 54.37 757.38 193.55 468.9 C 352.92 138.57 623.97 198.92 705.35 240 c 51.8 26.15 217.8 107.25 257.58 321.9 C 987.48 331.88 845.1 105.03 528.03 74.7 c -317.9 -30.38 -722 455.16 -289.5 924 z"
      stroke-linecap="round"/>
</g>
    <g transform="matrix(1 0 0 1 54.2014 88.2037)">
<path style="stroke: none; stroke-width: 1; stroke-dasharray: none; stroke-linecap: butt; stroke-dashoffset: 0; stroke-linejoin: miter; stroke-miterlimit: 4; is-custom-font: none; font-file-url: none; fill: rgb(55,90,127); fill-rule: nonzero; opacity: 1;"
      transform=" translate(-654.2014, -688.2037)"
      d="M 1150 747.63 S 999.17 1011.07 679.3 994.9 C 313 976.36 263.3 703.17 269.52 612.2 c 3.97 -57.88 14.2 -242.33 196.55 -362.4 c -211 103.82 -375.2 286.08 -279.95 590.05 c 95.5 304.7 699.9 488.4 963.87 -92.24 z"
      stroke-linecap="round"/>
</g>
    <g transform="matrix(1 0 0 1 101.5372 -67.5854)">
<path style="stroke: none; stroke-width: 1; stroke-dasharray: none; stroke-linecap: butt; stroke-dashoffset: 0; stroke-linejoin: miter; stroke-miterlimit: 4; is-custom-font: none; font-file-url: none; fill: rgb(37,37,37); fill-rule: nonzero; opacity: 1;"
      transform=" translate(-701.5372, -532.4146)"
      d="M 701.1 90.63 s 296.13 102.24 284.78 422.33 C 976 791.2 738.8 866.9 647.68 864.2 c -58 -1.64 -247.63 3.4 -362.94 -183.48 c 52.22 216.2 293.7 365.05 593.7 257.87 c 300.7 -107.43 396.2 -711.04 -177.34 -847.97 z"
      stroke-linecap="round"/>
</g>
</g>
</g>
    <g transform="matrix(21.7288 0 0 21.7288 500.0001 468.2052)" id="693453">
<path style="stroke: none; stroke-width: 1; stroke-dasharray: none; stroke-linecap: butt; stroke-dashoffset: 0; stroke-linejoin: miter; stroke-miterlimit: 4; is-custom-font: none; font-file-url: none; fill: rgb(52,152,219); fill-rule: nonzero; opacity: 1;"
      vector-effect="non-scaling-stroke" transform=" translate(-11.9988, -12.25)"
      d="M 12 22 c 1.1 0 2 -0.9 2 -2 h -4 c 0 1.1 0.89 2 2 2 z m 6 -6 v -5 c 0 -3.07 -1.64 -5.64 -4.5 -6.32 V 4 c 0 -0.83 -0.67 -1.5 -1.5 -1.5 s -1.5 0.67 -1.5 1.5 v 0.68 C 7.63 5.36 6 7.92 6 11 v 5 l -1.29 1.29 c -0.63 0.63 -0.19 1.71 0.7 1.71 h 13.17 c 0.89 0 1.34 -1.08 0.71 -1.71 L 18 16 z"
      stroke-linecap="round"/>
</g>
</svg>
